{
    "code": "gopay_merchant",
    "type_code": "emoney",
    "prefixes": "",
    "name": "Go-Pay Merchant",
    "state": "enabled",
    "state_desc": "string",
    "image": "https://content.payfazz.com/object/25cb003fcebb9a94386dc56411fdbe582aadf5e962627b2d394cfa7631b7a505",
    "order": 2,
    "plans": [],
    "disclaimer": ""
}