{
    "code": "telkom_postpaid",
    "type_code": "telephone_postpaid",
    "prefixes": "",
    "name": "TELKOM",
    "state": "enabled",
    "state_desc": "string",
    "image": "https://content.payfazz.com/object/d20afa0d7241d1e5ecec6d3d43c3d3ee3dbf739ee98025a908fe7c62f4444533",
    "order": 0,
    "plans": [],
    "disclaimer": ""
}